[
        {
            "name": "Թիվ 1 պոլիկլինիկա ՍՊՓԲԸ",
            "regional_code": "1"
        },
        {
            "name": "Թիվ 2 պոլիկլինիկա/ «Նոր Արեշ» պոլիկլինիկա» ՓԲԸ",
            "regional_code": "1"
        },
        {
            "name": "Թիվ 4 պոլիկլինիկա",
            "regional_code": "1"
        },
        {
            "name": "Թիվ 5 պոլիկլինիկա/ Նորք Մարաշ",
            "regional_code": "1"
        },
        {
            "name": "Թիվ 6 պոլիկլինիկա/ «Արմենիա» հանրապետական ԲԿ ՓԲԸ",
            "regional_code": "1"
        },
        {
            "name": "Թիվ 8 պոլիկլինիկա/ Թիվ 7 պոլիկլինիկա",
            "regional_code": "1"
        },
        {
            "name": "Թիվ 9 պոլիկլինիկա/ «Կարմիր բլուր պոլիկլինիկա» ՓԲԸ",
            "regional_code": "1"
        },
        {
            "name": "Թիվ 10 պոլիկլինիկա/ «Սարի Թաղ» պոլիկլինիկա» ՓԲԸ",
            "regional_code": "1"
        },
        {
            "name": "Թիվ 11 պոլիկլինիկա/ «Նոր Արաբկիր» ԱԿ ԴՓԲԸ",
            "regional_code": "1"
        },
        {
            "name": "Թիվ 12 պոլիկլինիկա",
            "regional_code": "1"
        },
        {
            "name": "Թիվ 13 պոլիկլինիկա",
            "regional_code": "1"
        },
        {
            "name": "Թիվ 14 պոլիկլինիկա/ Սբ. Գրիգոր Լուսավորիչ",
            "regional_code": "1"
        },
        {
            "name": "Թիվ 15 պոլիկլինիկա",
            "regional_code": "1"
        },
        {
            "name": "Թիվ 16 պոլիկլինիկա",
            "regional_code": "1"
        },
        {
            "name": "Թիվ 17 պոլիկլինիկա",
            "regional_code": "1"
        },
        {
            "name": "Թիվ 18 պոլիկլինիկա/ «Արշակունյաց» պոլիկլինիկա ՓԲԸ",
            "regional_code": "1"
        },
        {
            "name": "Թիվ 19 պոլիկլինիկա",
            "regional_code": "1"
        },
        {
            "name": "Թիվ 20 պոլիկլինիկա",
            "regional_code": "1"
        },
        {
            "name": "Թիվ 21 պոլիկլինիկա/ «Նուբարաշեն պոլիկլինիկա» ՓԲԸ",
            "regional_code": "1"
        },
        {
            "name": "Թիվ 22 պոլիկլինիկա",
            "regional_code": "1"
        },
        {
            "name": "«Նորագավիթ»/ «Նորագավիթ պոլիկլինիկա» ՓԲԸ",
            "regional_code": "1"
        },
        {
            "name": "«Էրեբունի» ԲԿ պոլիկլինիկա/ Թիվ 3 պոլիկլինիկա",
            "regional_code": "1"
        },
        {
            "name": "Թիվ 2 բուժմիավորում",
            "regional_code": "1"
        },
        {
            "name": "Թիվ 8 բուժմիավորում/«Կ. Եսայանի անվան պոլիկլինիկա» ՓԲԸ/«Քանաքեռ-Զեյթուն» ԲԿ",
            "regional_code": "1"
        },
        {
            "name": "«Մալաթիա» ԲՄ պոլիկլինիկա/ Նաթալի ֆարմ ՍՊԸ/ Աստղիկ ԲԿ",
            "regional_code": "1"
        },
        {
            "name": "«Գրիգոր Նարեկացի» բժշկական կենտրոն» ՓԲԸ",
            "regional_code": "1"
        },
        {
            "name": "Սուրբ Աստվածամայր բժշկական կենտրոն ՓԲԸ",
            "regional_code": "1"
        },
        {
            "name": "Մեդլայն կլինիկ ՍՊԸ",
            "regional_code": "1"
        },
        {
            "name": "Յունկտուռա ԸԲԱՊ ՍՊԸ",
            "regional_code": "1"
        },
        {
            "name": "Վարդանանց նորարարական ԲԿ",
            "regional_code": "1"
        },
        {
            "name": "Երեւանի Մխիթար Հերացու անվ․ պետական բժշկ․ համալսարան հիմնադրամ",
            "regional_code": "1"
        },
        {
            "name": "«ՆԱԻՐԻ» ԲԿ ՓԲԸ",
            "regional_code": "1"
        },
        {
            "name": "Վ․ Ավագյան ԲԿ",
            "regional_code": "1"
        },
        {
            "name": "Դիագնոստիկա բժշկական միավորում ԲԲԸ",
            "regional_code": "1"
        },
        {
            "name": "Արթմեդ ԲԿ",
            "regional_code": "1"
        },
        {
            "name": "Մուրացան ԲԿ",
            "regional_code": "1"
        },
        {
            "name": "Արտաշատի ԲԿ",
            "regional_code": "14"
        },
        {
            "name": "Ազատավանի ԱԱՊԿ",
            "regional_code": "14"
        },
        {
            "name": "Այգեզարդի ԱԱՊԿ",
            "regional_code": "14"
        },
        {
            "name": "Այգեստանի ԱԱՊԿ",
            "regional_code": "14"
        },
        {
            "name": "Արևշատի ԱԱՊԿ",
            "regional_code": "14"
        },
        {
            "name": "Բուրաստանի ԱԱՊԿ",
            "regional_code": "14"
        },
        {
            "name": "Գետազատի ԱԱՊԿ",
            "regional_code": "14"
        },
        {
            "name": "Դալարի ԱԱՊԿ",
            "regional_code": "14"
        },
        {
            "name": "Դիմիտրովի ԱԱՊԿ",
            "regional_code": "14"
        },
        {
            "name": "Դվինի ԱԱՊԿ",
            "regional_code": "14"
        },
        {
            "name": "Կանաչուտի ԱԱՊԿ",
            "regional_code": "14"
        },
        {
            "name": "Լանջազատի ԱԱՊԿ",
            "regional_code": "14"
        },
        {
            "name": "Մխչյանի ԲԱ",
            "regional_code": "14"
        },
        {
            "name": "Մրգավանի ԲԱ",
            "regional_code": "14"
        },
        {
            "name": "Նշավանի ԱԱՊԿ",
            "regional_code": "14"
        },
        {
            "name": "Նորաշենի ԱԱՊԿ",
            "regional_code": "14"
        },
        {
            "name": "Շահումյանի ԲԱ",
            "regional_code": "14"
        },
        {
            "name": "Ջրաշենի ԱԱՊԿ",
            "regional_code": "14"
        },
        {
            "name": "Վերին Արտաշատի ԲԱ",
            "regional_code": "14"
        },
        {
            "name": "Վերին Դվին ԲԱ",
            "regional_code": "14"
        },
        {
            "name": "Քաղցրաշենի ԱԱՊԿ",
            "regional_code": "14"
        },
        {
            "name": "Արարատի հիվանդանոց ԲԿ",
            "regional_code": "10"
        },
        {
            "name": "ՈԿՖ բանավանի ԱԱՊԿ",
            "regional_code": "10"
        },
        {
            "name": "Վեդու ԲԿ",
            "regional_code": "10"
        },
        {
            "name": "Այգավանի ԲԱ",
            "regional_code": "10"
        },
        {
            "name": "Ավշարի ԲԱ",
            "regional_code": "10"
        },
        {
            "name": "Արալեզի ԲԱ",
            "regional_code": "10"
        },
        {
            "name": "Արարատ ԲԱ",
            "regional_code": "10"
        },
        {
            "name": "Զանգակատան ԱԱՊԿ",
            "regional_code": "10"
        },
        {
            "name": "Լուսառատի ԲԱ",
            "regional_code": "10"
        },
        {
            "name": "Նոյակերտի ԱԱՊԿ",
            "regional_code": "10"
        },
        {
            "name": "Նոր-Կյանքի ԲԱ",
            "regional_code": "10"
        },
        {
            "name": "Ոսկետափի ԲԱ",
            "regional_code": "10"
        },
        {
            "name": "Սուրենավան ԲԱ",
            "regional_code": "10"
        },
        {
            "name": "Տափերականի ԲԱ",
            "regional_code": "10"
        },
        {
            "name": "Ուրցաձորի ԱԱՊԿ",
            "regional_code": "10"
        },
        {
            "name": "Փոքր Վեդու ԱԱՊԿ",
            "regional_code": "10"
        },
        {
            "name": "Մասիսի ԲԿ",
            "regional_code": "28"
        },
        {
            "name": "Այնթապ ԲԱ",
            "regional_code": "28"
        },
        {
            "name": "Արբաթի ԲԱ",
            "regional_code": "28"
        },
        {
            "name": "Արգավանդի ԱԱՊԿ",
            "regional_code": "28"
        },
        {
            "name": "Գեղանիստի ԱԱՊԿ",
            "regional_code": "28"
        },
        {
            "name": "Դաշտավանի ԱԱՊԿ",
            "regional_code": "28"
        },
        {
            "name": "Դարակերտի ԱԱՊԿ",
            "regional_code": "28"
        },
        {
            "name": "Խաչփարի ԲԱ",
            "regional_code": "28"
        },
        {
            "name": "Հայանիստի ԱԱՊԿ",
            "regional_code": "28"
        },
        {
            "name": "Հովտաշատի ԱԱՊԿ",
            "regional_code": "28"
        },
        {
            "name": "Մարմարաշենի ԱԱՊԿ",
            "regional_code": "28"
        },
        {
            "name": "Նորաբացի ԲԱ",
            "regional_code": "28"
        },
        {
            "name": "Նորամարգի ԱԱՊԿ",
            "regional_code": "28"
        },
        {
            "name": "Նոր-Խարբերդի ԱԱՊԿ",
            "regional_code": "28"
        },
        {
            "name": "Ռանչպար ԲԱ",
            "regional_code": "28"
        },
        {
            "name": "Սայաթ-Նովայի ԱԱՊԿ",
            "regional_code": "28"
        },
        {
            "name": "Սիսի ԲԱ",
            "regional_code": "28"
        },
        {
            "name": "Ծաղկահովիտի ԱԿ",
            "regional_code": "7"
        },
        {
            "name": "Աշտարակի ԲԿ",
            "regional_code": "9"
        },
        {
            "name": "Ագարակի ԲԱ",
            "regional_code": "9"
        },
        {
            "name": "Արուճի ԲԱ",
            "regional_code": "9"
        },
        {
            "name": "Բյուրականի ԲԱ",
            "regional_code": "9"
        },
        {
            "name": "Կարբիի ԲԱ",
            "regional_code": "9"
        },
        {
            "name": "Կոշի Ասյա Մարկոսյանի անվան ԲԱ",
            "regional_code": "9"
        },
        {
            "name": "Արմենակ և Աննա Թադեոսեանների ԲԿ /մասնավոր/",
            "regional_code": "9"
        },
        {
            "name": "Ոսկեվազի ԲԱ",
            "regional_code": "9"
        },
        {
            "name": "Սասունիկի ԲԱ",
            "regional_code": "9"
        },
        {
            "name": "Ուջանի ԲԱ",
            "regional_code": "9"
        },
        {
            "name": "Փարպիի ԲԱ",
            "regional_code": "9"
        },
        {
            "name": "Օշականի ԲԱ",
            "regional_code": "9"
        },
        {
            "name": "Ապարանի ԲԿ",
            "regional_code": "6"
        },
        {
            "name": "Արագածի ԱԿ",
            "regional_code": "6"
        },
        {
            "name": "Շենավանի ԲԱ",
            "regional_code": "6"
        },
        {
            "name": "Քուչակի ԲԱ",
            "regional_code": "6"
        },
        {
            "name": "Թալինի ԲԿ",
            "regional_code": "22"
        },
        {
            "name": "Նարեկ ԱԿ ՍՊԸ /մասնավոր/",
            "regional_code": "22"
        },
        {
            "name": "Արագածավանի ԲԱ",
            "regional_code": "22"
        },
        {
            "name": "Արտենիի ԱԿ",
            "regional_code": "22"
        },
        {
            "name": "Մաստարայի ԲԱ",
            "regional_code": "22"
        },
        {
            "name": "Ներքին Բազմաբերդի ԲԱ",
            "regional_code": "22"
        },
        {
            "name": "«Զարիշատ (Արամ) Մարտինի Մկրտչյանի անվան Արմավիրի ԲԿ»",
            "regional_code": "13"
        },
        {
            "name": "Մեծամորի ԲԿ",
            "regional_code": "13"
        },
        {
            "name": "Այգեվանի ԲԱ",
            "regional_code": "13"
        },
        {
            "name": "Արգավանդի ԲԱ",
            "regional_code": "13"
        },
        {
            "name": "Արմավիրի ԱԱՊԿ",
            "regional_code": "13"
        },
        {
            "name": "Արևիկի ԲԱ",
            "regional_code": "13"
        },
        {
            "name": "Ալաշկերտի ԲԱ",
            "regional_code": "13"
        },
        {
            "name": "Բամբակաշատ ԲԱ",
            "regional_code": "13"
        },
        {
            "name": "Գետաշենի ԲԱ",
            "regional_code": "13"
        },
        {
            "name": "Զարթոնքի ԲԱ",
            "regional_code": "13"
        },
        {
            "name": "Լենուղու ԲԱ",
            "regional_code": "13"
        },
        {
            "name": "Խանջյանի ԲԱ",
            "regional_code": "13"
        },
        {
            "name": "Հացիկի ԲԱ",
            "regional_code": "13"
        },
        {
            "name": "Սարդարապատի ԲԱ",
            "regional_code": "13"
        },
        {
            "name": "Մայիսյանի ԲԱ",
            "regional_code": "13"
        },
        {
            "name": "Մարգարայի ԲԱ",
            "regional_code": "13"
        },
        {
            "name": "Մրգաշատի ԲԱ",
            "regional_code": "13"
        },
        {
            "name": "Նալբանդյանի ԲԱ",
            "regional_code": "13"
        },
        {
            "name": "Նոր Արտագերսի ԲԱ",
            "regional_code": "13"
        },
        {
            "name": "Նորապատի ԲԱ",
            "regional_code": "13"
        },
        {
            "name": "Շենավանի ԲԱ",
            "regional_code": "13"
        },
        {
            "name": "Ջանֆիդայի ԲԱ",
            "regional_code": "13"
        },
        {
            "name": "Վարդանաշենի ԲԱ",
            "regional_code": "13"
        },
        {
            "name": "Տանձուտի ԲԱ",
            "regional_code": "13"
        },
        {
            "name": "Փշատավանի ԲԱ",
            "regional_code": "13"
        },
        {
            "name": "Բաղրամյան 1 ԲԱ",
            "regional_code": "15"
        },
        {
            "name": "Դալարիկի ԲԱ",
            "regional_code": "15"
        },
        {
            "name": "Երվանդաշատի ԱԱՊԿ",
            "regional_code": "15"
        },
        {
            "name": "Լեռնագոգի ԲԱ",
            "regional_code": "15"
        },
        {
            "name": "Հուշակերտի ԲԱ",
            "regional_code": "15"
        },
        {
            "name": "Քևօրք և Անիթա Փակումեանների հիշատակի «Հիսուսի մանուկներ ԱԿ»",
            "regional_code": "15"
        },
        {
            "name": "Քարակերտի ԲԱ",
            "regional_code": "15"
        },
        {
            "name": "Էջմիածնի ԲԿ",
            "regional_code": "21"
        },
        {
            "name": "Վաղարշապատի հիվանդանոց",
            "regional_code": "21"
        },
        {
            "name": "Ակնալճի ԲԱ",
            "regional_code": "21"
        },
        {
            "name": "Աղավնատան ԲԱ",
            "regional_code": "21"
        },
        {
            "name": "Այգեշատի ԲԱ",
            "regional_code": "21"
        },
        {
            "name": "Ապագայի ԲԱ",
            "regional_code": "21"
        },
        {
            "name": "Առատաշենի ԲԱ",
            "regional_code": "21"
        },
        {
            "name": "Արագածի ԲԱ",
            "regional_code": "21"
        },
        {
            "name": "Արաքսի ԲԱ",
            "regional_code": "21"
        },
        {
            "name": "Արշալույսի ԲԱ",
            "regional_code": "21"
        },
        {
            "name": "Բաղրամյանի ԲԱ",
            "regional_code": "21"
        },
        {
            "name": "Գայի ԱԱՊԿ",
            "regional_code": "21"
        },
        {
            "name": "Գրիբոյեդովի ԲԱ",
            "regional_code": "21"
        },
        {
            "name": "Գեղակերտի ԲԱ",
            "regional_code": "21"
        },
        {
            "name": "Խորոնքի ԲԱ",
            "regional_code": "21"
        },
        {
            "name": "Հայթաղի ԲԱ",
            "regional_code": "21"
        },
        {
            "name": "Մերձավանի ԲԱ",
            "regional_code": "21"
        },
        {
            "name": "Մաստերֆարմ ՍՊԸ",
            "regional_code": "21"
        },
        {
            "name": "Մուսալեռի ԲԱ",
            "regional_code": "21"
        },
        {
            "name": "Նորակերտի ԲԱ",
            "regional_code": "21"
        },
        {
            "name": "Շահումյանի ԲԱ",
            "regional_code": "21"
        },
        {
            "name": "Ոսկեհատի ԲԱ",
            "regional_code": "21"
        },
        {
            "name": "Ջրառատի ԲԱ",
            "regional_code": "21"
        },
        {
            "name": "Փարաքարի ԲԱ",
            "regional_code": "21"
        },
        {
            "name": "Թաիրովի ԲԱ",
            "regional_code": "21"
        },
        {
            "name": "Տարոնիկի ԲԱ ՀՈԱԿ",
            "regional_code": "21"
        },
        {
            "name": "«Ռուբիկ Հարությունյանի անվ․ Աբովյանի ԲԿ» ՓԲԸ",
            "regional_code": "2"
        },
        {
            "name": "«Ա․Պետրոսյանի անվ․ Բյուրեղավանի քաղաքային պոլիկլինիկա» ՓԲԸ",
            "regional_code": "2"
        },
        {
            "name": "«Ակունքի ԱԱՊԿ» ՊՈԱԿ",
            "regional_code": "2"
        },
        {
            "name": "«Առինջի ԲԱ» <<Անահիտ Ծառուկյանի անվան ԲԱ>> ՀՈԱԿ",
            "regional_code": "2"
        },
        {
            "name": "«Արամուսի ԱԱՊԿ» ՊՈԱԿ",
            "regional_code": "2"
        },
        {
            "name": "«Արզնիի ԲԱ» ՊՈԱԿ",
            "regional_code": "2"
        },
        {
            "name": "«Բալահովիտի ԲԱ» ՊՈԱԿ",
            "regional_code": "2"
        },
        {
            "name": "«Կ.Խաչատրյանի անվան Գառնիի ԱԿ» ՊՈԱԿ",
            "regional_code": "2"
        },
        {
            "name": "«Գեղաշենի ԱԱՊԿ» ՊՈԱԿ",
            "regional_code": "2"
        },
        {
            "name": "«Զառի ԱԱՊԿ» ՊՈԱԿ",
            "regional_code": "2"
        },
        {
            "name": "«Կապուտանի ԱԱՊԿ» ՊՈԱԿ",
            "regional_code": "2"
        },
        {
            "name": "«Կոտայքի ԱԱՊԿ» ՊՈԱԿ",
            "regional_code": "2"
        },
        {
            "name": "«Ձորաղբյուրի ԱԱՊԿ» ՊՈԱԿ",
            "regional_code": "2"
        },
        {
            "name": "«Մայակովսկու ԱԱՊԿ» ՊՈԱԿ",
            "regional_code": "2"
        },
        {
            "name": "«Ջրվեժի ԲԱ» ՊՈԱԿ",
            "regional_code": "2"
        },
        {
            "name": "«Վերին Պտղնիի ԱԱՊԿ» ՊՈԱԿ",
            "regional_code": "2"
        },
        {
            "name": "«Չարենցավանի ԲԿ» ՓԲԸ",
            "regional_code": "34"
        },
        {
            "name": "«Հրազդանի ԲԿ» ՓԲԸ",
            "regional_code": "26"
        },
        {
            "name": "«Ծաղկաձորի ԲԱ» ՊՈԱԿ",
            "regional_code": "26"
        },
        {
            "name": "«Ալափարսի ԱԱՊԿ» ՊՈԱԿ",
            "regional_code": "34"
        },
        {
            "name": "«Արզականի ԱԱՊԿ» ՊՈԱԿ",
            "regional_code": "34"
        },
        {
            "name": "«Բջնիի ԲԱ» ՊՈԱԿ ",
            "regional_code": "34"
        },
        {
            "name": "«Լեռնանիստի ԲԱ» ՊՈԱԿ",
            "regional_code": "26"
        },
        {
            "name": "«Մեղրաձորի ԲԱ» ՊՈԱԿ",
            "regional_code": "26"
        },
        {
            "name": "«Սոլակի ԱԱՊԿ» ՊՈԱԿ",
            "regional_code": "26"
        },
        {
            "name": "«Քաղսիի ԱԱՊԿ» ՊՈԱԿ",
            "regional_code": "26"
        },
        {
            "name": "«Նաիրիի ԲԿ» ՓԲԸ",
            "regional_code": "32"
        },
        {
            "name": "«Նոր Հաճնի պոլիկլինիկա» ՊՓԲԸ",
            "regional_code": "32"
        },
        {
            "name": "«Արագյուղի ԱԱՊԿ» ՊՈԱԿ",
            "regional_code": "32"
        },
        {
            "name": "«Արգելի ԱԿ» ՊՈԱԿ",
            "regional_code": "32"
        },
        {
            "name": "«Բուժականի ԲԱ» ՀՈԱԿ",
            "regional_code": "32"
        },
        {
            "name": "«Զովունու ԱԱՊԿ» ՊՈԱԿ",
            "regional_code": "32"
        },
        {
            "name": "«Մրգաշենի ԱԱՊԿ» ՊՈԱԿ",
            "regional_code": "32"
        },
        {
            "name": "«Նոր Գեղիի ԱԱՊԿ» ՊՈԱԿ",
            "regional_code": "32"
        },
        {
            "name": "«Նոր Երզնկայի ԱԱՊԿ» ՊՈԱԿ",
            "regional_code": "32"
        },
        {
            "name": "«Պռոշյանի ԱԱՊԿ» ՊՈԱԿ",
            "regional_code": "32"
        },
        {
            "name": "«Քանաքեռավանի ԱԱՊԿ» ՊՈԱԿ",
            "regional_code": "32"
        },
        {
            "name": "«Քասախի ԱԱՊԿ» ՊՈԱԿ",
            "regional_code": "32"
        },
        {
            "name": "«Նաիրիի ԲԿ» ՓԲԸ",
            "regional_code": "32"
        },
        {
            "name": "«Նոր Հաճնի պոլիկլինիկա» ՊՓԲԸ",
            "regional_code": "32"
        },
        {
            "name": "«Արագյուղի ԱԱՊԿ» ՊՈԱԿ",
            "regional_code": "32"
        },
        {
            "name": "«Արգելի ԱԿ» ՊՈԱԿ",
            "regional_code": "32"
        },
        {
            "name": "«Բուժականի ԲԱ» ՀՈԱԿ",
            "regional_code": "32"
        },
        {
            "name": "«Զովունու ԱԱՊԿ» ՊՈԱԿ",
            "regional_code": "32"
        },
        {
            "name": "«Մրգաշենի ԱԱՊԿ» ՊՈԱԿ",
            "regional_code": "32"
        },
        {
            "name": "«Նոր Գեղիի ԱԱՊԿ» ՊՈԱԿ",
            "regional_code": "32"
        },
        {
            "name": "«Նոր Երզնկայի ԱԱՊԿ» ՊՈԱԿ",
            "regional_code": "32"
        },
        {
            "name": "«Պռոշյանի ԱԱՊԿ» ՊՈԱԿ",
            "regional_code": "32"
        },
        {
            "name": "«Քանաքեռավանի ԱԱՊԿ» ՊՈԱԿ",
            "regional_code": "32"
        },
        {
            "name": "«Քասախի ԱԱՊԿ» ՊՈԱԿ",
            "regional_code": "32"
        },
        {
            "name": ",,Գավառի բժշկական կենտրոն ,,ՓԲԸ",
            "regional_code": "16"
        },
        {
            "name": ",,Գավառի պոլիկլինիկա,,ՊՓԲԸ",
            "regional_code": "16"
        },
        {
            "name": ",,Գանձակի ԱԱՊԿ,, ՊՈԱԿ",
            "regional_code": "16"
        },
        {
            "name": ",,Լճափի ԱԱՊԿ,, ՊՈԱԿ",
            "regional_code": "16"
        },
        {
            "name": ",,Կարմիրգյուղի ԲԱ ,, ՊՈԱԿ",
            "regional_code": "16"
        },
        {
            "name": ",,Նորատուսի ԲԱ,, ՊՈԱԿ",
            "regional_code": "16"
        },
        {
            "name": ",,Սարուխանի բուժամբուլատորիա,, ՊՈԱԿ",
            "regional_code": "16"
        },
        {
            "name": ",,Ճամբարակի ԱԿ,, ՓԲԸ",
            "regional_code": "27"
        },
        {
            "name": ",,Դպրաբակի ԲԱ,, ՊՈԱԿ",
            "regional_code": "27"
        },
        {
            "name": ",,Սևանի բժշկական կենտրոն,, ՓԲԸ",
            "regional_code": "35"
        },
        {
            "name": "<<Դդմաշենի ԲԱ>> ՊՈԱԿ",
            "regional_code": "35"
        },
        {
            "name": ",,Լճաշենի ԱԱՊԿ,, ՊՈԱԿ",
            "regional_code": "35"
        },
        {
            "name": ",,Ծովագյուղի ԱԱՊԿ,, ՊՈԱԿ",
            "regional_code": "35"
        },
        {
            "name": ",,Մարտունու բժշկական կենտրոն ,,ՓԲԸ",
            "regional_code": "29"
        },
        {
            "name": ",,Աստղաձորի ԱԱՊԿ,, ՊՈԱԿ",
            "regional_code": "29"
        },
        {
            "name": ",,Արծվանիստի ԱԱՊԿ,, ՊՈԱԿ",
            "regional_code": "29"
        },
        {
            "name": ",,Գեղհովիտի ԱԱՊԿ,, ՊՈԱԿ",
            "regional_code": "29"
        },
        {
            "name": ",,Երանոսի ԲԱ,, ՊՈԱԿ",
            "regional_code": "29"
        },
        {
            "name": ",,Զոլաքարի բուժամբուլատորիա,, ՊՈԱԿ",
            "regional_code": "29"
        },
        {
            "name": ",,Լիճքի ԱԱՊԿ,, ՊՈԱԿ",
            "regional_code": "29"
        },
        {
            "name": ",,Ծակքարի ԱԱՊԿ,, ՊՈԱԿ",
            "regional_code": "29"
        },
        {
            "name": ",,Ծովինարի բուժամբուլատորիա,,ՊՈԱԿ",
            "regional_code": "29"
        },
        {
            "name": ",,Ծովասարի ԱԱՊԿ,, ՊՈԱԿ",
            "regional_code": "29"
        },
        {
            "name": ",,Ձորագյուղի ԲԱ,, ՊՈԱԿ",
            "regional_code": "29"
        },
        {
            "name": ",,Ներքին Գետաշենի բուժամբուլատորիա,,ՊՈԱԿ",
            "regional_code": "29"
        },
        {
            "name": ",,Վերին Գետաշենի բուժամբուլատորիա,,ՊՈԱԿ",
            "regional_code": "29"
        },
        {
            "name": ",,Վաղաշենի ԱԱՊԿ,, ՊՈԱԿ",
            "regional_code": "29"
        },
        {
            "name": ",,Վարդաձորի ԱԱՊԿ,, ՊՈԱԿ",
            "regional_code": "29"
        },
        {
            "name": ",,Վարդենիկի ԱԿ,, ՊՈԱԿ",
            "regional_code": "29"
        },
        {
            "name": ",,Վարդենիսի հիվանդանոց,, ՓԲԸ",
            "regional_code": "41"
        },
        {
            "name": ",,Վարդենիսի պոլիկլինիկա,, ՓԲԸ",
            "regional_code": "41"
        },
        {
            "name": ",,Ակունքի ԱԱՊԿ,, ՊՈԱԿ",
            "regional_code": "41"
        },
        {
            "name": ",,Գեղամասարի ԱԱՊԿ,,ՊՈԱԿ",
            "regional_code": "41"
        },
        {
            "name": ",,Լուսակունքի ԱԱՊԿ,, ՊՈԱԿ",
            "regional_code": "41"
        },
        {
            "name": ",,Ծովակի ԱԱՊԿ,,ՊՈԱԿ",
            "regional_code": "41"
        },
        {
            "name": "“Կարճաղբյուրի ԱԱՊԿ“ ՊՈԱԿ",
            "regional_code": "41"
        },
        {
            "name": "“Մեծ Մասրիկի ԱԱՊԿ” ՊՈԱԿ",
            "regional_code": "41"
        },
        {
            "name": "ՙՎանաձորի բժշկական կենտրոն՚ՓԲԸ",
            "regional_code": "40"
        },
        {
            "name": "ՙՎանաձորի թիվ 1 պոլիկլինիկա ՚ՊՓԲԸ",
            "regional_code": "40"
        },
        {
            "name": "ՙՎանաձորի թիվ 3 պոլիկլինիկա ՚ՊՓԲԸ",
            "regional_code": "40"
        },
        {
            "name": "ՙՎանաձորի թիվ 5 պոլիկլինիկա՚ՊՓԲԸ",
            "regional_code": "40"
        },
        {
            "name": "ՙԳուգարք կենտրոնական պոլիկլինիկա՚ ՊՓԲԸ",
            "regional_code": "40"
        },
        {
            "name": "«Գուգարքի առողջության առաջնային պահպանման կենտրոն» ՊՈԱԿ",
            "regional_code": "40"
        },
        {
            "name": "ՙԼեռնապատի առողջության կենտրոն՚ ՊՈԱԿ",
            "regional_code": "40"
        },
        {
            "name": "ՙՄարգահովիտի առողջության կենտրոն՚ ՊՈԱԿ",
            "regional_code": "40"
        },
        {
            "name": "«Շահումյանի առողջության առաջնային պահպանման կենտրոն» ՊՈԱԿ",
            "regional_code": "40"
        },
        {
            "name": "ՙՎահագնիի Մ.Քոչինյանի առողջության կենտրոն՚ ՊՈԱԿ",
            "regional_code": "40"
        },
        {
            "name": "ՙԱլավերդու բժշկական կենտրոն՚ ՓԲԸ",
            "regional_code": "23"
        },
        {
            "name": "ՙԱխթալայի առողջության կենտրոն՚ ՊՓԲԸ",
            "regional_code": "23"
        },
        {
            "name": "ՙԹումանյանի առողջության կենտրոն՚ ՊՓԲԸ",
            "regional_code": "23"
        },
        {
            "name": "«Արևածագի առողջության առաջնային պահպանման կենտրոն» ՊՈԱԿ",
            "regional_code": "23"
        },
        {
            "name": "«Աքորու առողջության առաջնային պահպանման կենտրոն» ՊՈԱԿ",
            "regional_code": "23"
        },
        {
            "name": "«Դսեղի առողջության կենտրոն» ՊՈԱԿ",
            "regional_code": "23"
        },
        {
            "name": "ՙՃոճկանի բժշկական ամբուլատորիա՚ ՀՈԱԿ",
            "regional_code": "23"
        },
        {
            "name": "ՙՇնողի բժշկական ամբուլատորիա՚ ՀՈԱԿ",
            "regional_code": "23"
        },
        {
            "name": "ՙՕձունի բժշկական ամբուլատորիա՚ ՀՈԱԿ",
            "regional_code": "23"
        },
        {
            "name": "ՙՍպիտակի բժշկական կենտրոն՚ ՓԲԸ",
            "regional_code": "37"
        },
        {
            "name": "«Արեւաշողի առողջության առաջնային պահպանման կենտրոն» ՊՈԱԿ",
            "regional_code": "37"
        },
        {
            "name": "«Մեծ Պարնիի առողջության կենտրոն» ՊՈԱԿ",
            "regional_code": "37"
        },
        {
            "name": "ՙՋրաշենի բժշկական ամբուլատորիա՚ ՀՈԱԿ",
            "regional_code": "37"
        },
        {
            "name": "ՙՍտեփանավանի բժշկական կենտրոն՚ ՓԲԸ",
            "regional_code": "38"
        },
        {
            "name": "ՙՎարդաբլուրի բժշկական ամբուլատորիա՚ ՀՈԱԿ",
            "regional_code": "38"
        },
        {
            "name": "Ուռուտի առողջության առաջնային պահպանման կենտրոն » ՊՈԱԿ",
            "regional_code": "38"
        },
        {
            "name": "ՙՏաշիրի բժշկական կենտրոն՚ ՓԲԸ",
            "regional_code": "42"
        },
        {
            "name": "«Մեծավանի առողջության կենտրոն» ՊՈԱԿ",
            "regional_code": "42"
        },
        {
            "name": "<<Եղեգնաձորի բժշկական կենտրոն>> ՓԲԸ",
            "regional_code": "20"
        },
        {
            "name": "Աղավնաձորի առողջության առաջնային պահպանման կենտրոն» ՊՈԱԿ",
            "regional_code": "20"
        },
        {
            "name": ",,Արենի,, առողջության առաջնային պահպանման կենտրոն ՊՈԱԿ",
            "regional_code": "20"
        },
        {
            "name": "Մալիշկայի առողջության առաջնային պահպանման կենտրոն» ՊՈԱԿ",
            "regional_code": "20"
        },
        {
            "name": "'Հռիփսիմե գյուղական բժշկական ամբուլատորիա'' ՊՈԱԿ",
            "regional_code": "20"
        },
        {
            "name": "<<Վայքի բուժական միավորում>> ՓԲԸ",
            "regional_code": "39"
        },
        {
            "name": ",,Ջերմուկի առողջության կենտրոն'' ՓԲԸ",
            "regional_code": "39"
        },
        {
            "name": "Զառիթափի առողջության առաջնային պահպանման կենտրոն ՊՈԱԿ",
            "regional_code": "39"
        },
        {
            "name": "<<Գորիսի բժշկական կենտրոն>> ՓԲԸ",
            "regional_code": "18"
        },
        {
            "name": "<<Խնձորեսկի առողջության առաջնային պահպանման կենտրոն>> ՊՈԱԿ",
            "regional_code": "18"
        },
        {
            "name": "<<Շինուհայրի առողջության առաջնային պահպանման կենտրոն>> ՊՈԱԿ",
            "regional_code": "18"
        },
        {
            "name": "<<Վերիշենի բժշկական ամբուլատորիա>> ՊՈԱԿ",
            "regional_code": "18"
        },
        {
            "name": "<<Տաթևի առողջության կենտրոն>> ՊՈԱԿ",
            "regional_code": "18"
        },
        {
            "name": "«Տեղի առողջության առաջնային պահպանման կենտրոն» ՊՈԱԿ",
            "regional_code": "18"
        },
        {
            "name": "<<Մեղրու տարածաշրջանային բժշկական կենտրոն>> ՓԲԸ",
            "regional_code": "31"
        },
        {
            "name": "<<Քաջարանի բժշկական կենտրոն>> ՓԲԸ",
            "regional_code": "44"
        },
        {
            "name": "<<Կապանի բժշկական կենտրոն>> ՓԲԸ",
            "regional_code": "25"
        },
        {
            "name": "<<Նորաշենիկի առողջության առաջնային պահպանման կենտրոն>> ՊՈԱԿ",
            "regional_code": "25"
        },
        {
            "name": "<<Սիսիանի բժշկական կենտրոն>> ՓԲԸ",
            "regional_code": "36"
        },
        {
            "name": "<<Անգեղակոթի բժշկական ամբուլատորիա>> ՊՈԱԿ",
            "regional_code": "36"
        },
        {
            "name": "<<Բռնակոթի առողջության առաջնային պահպանման կենտրոն>> ՊՈԱԿ",
            "regional_code": "36"
        },
        {
            "name": "<<Գորայքի առողջության առաջնային պահպանման կենտրոն>> ՊՈԱԿ",
            "regional_code": "36"
        },
        {
            "name": "<<Դարբասի առողջության կենտրոն>> ՊՈԱԿ",
            "regional_code": "36"
        },
        {
            "name": ",,Իռվինգ՚՚ ՍՊԸ",
            "regional_code": "19"
        },
        {
            "name": ",,Հաղարծնի ԱԱՊԿ,, ՊՈԱԿ",
            "regional_code": "19"
        },
        {
            "name": ",,Իջևանի ԲԿ,, ՓԲԸ",
            "regional_code": "24"
        },
        {
            "name": ",,Իջևանի ԱԱՊԿ,, ՓԲԸ",
            "regional_code": "24"
        },
        {
            "name": ",,Ազատամուտի ԱԱՊԿ՚՚ ՊՈԱԿ",
            "regional_code": "24"
        },
        {
            "name": ",,Այգեհովիտի ԱԱՊԿ,,ՊՈԱԿ",
            "regional_code": "24"
        },
        {
            "name": ",,Աչաջրի ԱԿ,,ՊՈԱԿ",
            "regional_code": "24"
        },
        {
            "name": "Գանձաքարի ԳԲԱ - ՀՈԱԿ",
            "regional_code": "24"
        },
        {
            "name": ",,Գետահովիտի ԱԱՊԿ,, ՊՈԱԿ",
            "regional_code": "24"
        },
        {
            "name": ",,Խաշթառակի ԱԱՊԿ,, ՊՈԱԿ",
            "regional_code": "24"
        },
        {
            "name": ",,Սևքարի ԳԲԱ,, ՊՈԱԿ",
            "regional_code": "24"
        },
        {
            "name": ",,Բերդի ԲԿ,, ՓԲԸ",
            "regional_code": "43"
        },
        {
            "name": ",,Այգեձորի ԱԿ,, ՊՈԱԿ",
            "regional_code": "43"
        },
        {
            "name": ",,Արծվաբերդի ԱԿ,, ՊՈԱԿ",
            "regional_code": "43"
        },
        {
            "name": ",,Մովսեսի ԱԱՊԿ,, ՊՈԱԿ",
            "regional_code": "43"
        },
        {
            "name": ",,Նավուրի ԱԱՊԿ,, ՊՈԱԿ",
            "regional_code": "43"
        },
        {
            "name": ",,Ներքին Կարմիր Աղբյուրի ԱԱՊԿ,, ՊՈԱԿ",
            "regional_code": "43"
        },
        {
            "name": ",,Պառավաքարի ԳԲԱ,, ՊՈԱԿ",
            "regional_code": "43"
        },
        {
            "name": ",,Նոյեմբերյանի ԲԿ,, ՓԲԸ",
            "regional_code": "33"
        },
        {
            "name": ",,Արևհատ և Անի,, ՍՊԸ",
            "regional_code": "33"
        },
        {
            "name": ",,Այրումի ԳԲԱ,, ՊՈԱԿ",
            "regional_code": "33"
        },
        {
            "name": ",,Բագրատաշենի ԱԱՊԿ,, ՊՈԱԿ",
            "regional_code": "33"
        },
        {
            "name": "Բերդավանի ԳԲԱ - ՀՈԱԿ",
            "regional_code": "33"
        },
        {
            "name": ",,Կոթիի ԳԲԱ,, ՊՈԱԿ",
            "regional_code": "33"
        },
        {
            "name": "Կողբի ԳԲԱ - ՀՈԱԿ",
            "regional_code": "33"
        },
        {
            "name": ",,Զորականի ԱԱՊԿ,, ՊՈԱԿ",
            "regional_code": "33"
        },
        {
            "name": ",,Ոսկեվանի ԱԱՊԿ,, ՊՈԱԿ",
            "regional_code": "33"
        },
        {
            "name": ",,Նոյեմբերյանի ԲԿ,, ՓԲԸ",
            "regional_code": "33"
        },
        {
            "name": ",,Արևհատ և Անի,, ՍՊԸ",
            "regional_code": "33"
        },
        {
            "name": ",,Այրումի ԳԲԱ,, ՊՈԱԿ",
            "regional_code": "33"
        },
        {
            "name": ",,Բագրատաշենի ԱԱՊԿ,, ՊՈԱԿ",
            "regional_code": "33"
        },
        {
            "name": "Բերդավանի ԳԲԱ - ՀՈԱԿ",
            "regional_code": "33"
        },
        {
            "name": ",,Կոթիի ԳԲԱ,, ՊՈԱԿ",
            "regional_code": "33"
        },
        {
            "name": "Կողբի ԳԲԱ - ՀՈԱԿ",
            "regional_code": "33"
        },
        {
            "name": ",,Զորականի ԱԱՊԿ,, ՊՈԱԿ",
            "regional_code": "33"
        },
        {
            "name": ",,Ոսկեվանի ԱԱՊԿ,, ՊՈԱԿ",
            "regional_code": "33"
        },
        {
            "name": "«Գյումրու բժշկական կենտրոն» ՓԲԸ",
            "regional_code": "17"
        },
        {
            "name": "«Գյումրու Էնրիկո Մատտեի անվան պոլիկլինիկա » ՓԲԸ",
            "regional_code": "17"
        },
        {
            "name": "«Գյումրու Միջազգային Կարմիր խաչի անվան պոլիկլինիկա» ՓԲԸ",
            "regional_code": "17"
        },
        {
            "name": "«Գյումրու Ն.Ա.Մելիքյանի անվան թիվ 2 պոլիկլինիկա» ՓԲԸ",
            "regional_code": "17"
        },
        {
            "name": "«Գյումրու ուռուցքաբանական դիսպասնսեր» ՓԲԸ",
            "regional_code": "17"
        },
        {
            "name": "«Գյումրու Վ.Աբաջյանի անվան Ընտանեկան բժշկության կենտրոն» ՓԲԸ",
            "regional_code": "17"
        },
        {
            "name": "Գյումրու «Բեռլին պոլիկլինիկա» ՓԲԸ",
            "regional_code": "17"
        },
        {
            "name": "«Գյումրու թիվ 1 պոլիկլինիկա» ՓԲԸ",
            "regional_code": "17"
        },
        {
            "name": "«Գյումրու մոր և մանկան ավստրիական հիվանդանոց» ՓԲԸ",
            "regional_code": "17"
        },
        {
            "name": "«Ազատանի բժշկական ամբուլատորիա» ՊՈԱԿ",
            "regional_code": "3"
        },
        {
            "name": "«Ախուրիկի բժշկական ամբուլատորիա» ՊՈԱԿ",
            "regional_code": "3"
        },
        {
            "name": "«Ախուրյանի բժշկական կենտրոն» ՓԲԸ",
            "regional_code": "3"
        },
        {
            "name": "«Մայիսյանի բժշկական ամբուլատորիա» ՊՈԱԿ",
            "regional_code": "3"
        },
        {
            "name": "«Մարմաշենի բժշկական ամբուլատորիա» ՊՈԱԿ",
            "regional_code": "3"
        },
        {
            "name": "«Ջաջուռի բժշկական ամբուլատորի» ՊՈԱԿ",
            "regional_code": "3"
        },
        {
            "name": "«Ամասիայի առողջության կենտրոն» ՓԲԸ",
            "regional_code": "3"
        },
        {
            "name": "«Արթիկի բժշկական կենտրոն» ՓԲԸ",
            "regional_code": "12"
        },
        {
            "name": "«Հոռոմի բժշկական ամբուլատորիա» ՊՈԱԿ",
            "regional_code": "12"
        },
        {
            "name": "«Մեծ Մանթաշի առողջության կենտրոն » ՊՈԱԿ",
            "regional_code": "12"
        },
        {
            "name": "«Պեմզաշենի առողջության կենտրոն» ՊՈԱԿ",
            "regional_code": "12"
        },
        {
            "name": "«Փանիկի առողջության կենտրոն» ՊՈԱԿ",
            "regional_code": "12"
        },
        {
            "name": "«Արթիկի մոր և մանկան առողջության պահպանման կենտրոն» ՓԲԸ",
            "regional_code": "12"
        },
        {
            "name": "«Մարալիկի առողջության կենտրոն » ՓԲԸ",
            "regional_code": "5"
        },
        {
            "name": "«Աղինի առողջության կենտրոն » ՊՈԱԿ",
            "regional_code": "5"
        },
        {
            "name": "«Անի-Պեմզայի առողջության կենտրոն » ՊՈԱԿ",
            "regional_code": "5"
        },
        {
            "name": "«Սառնաղբյուրի առողջության կենտրոն» ՊՈԱԿ",
            "regional_code": "5"
        },
        {
            "name": "«Տիրամայր Նարեկ» Աշոցքի հիվանդանոց (Կամիլիանների միաբանության «Սբ․ Կանիլո» ԲՀ)",
            "regional_code": "8"
        }
]
