[
  {
    "name": "Էստրոգեն ընկալիչների որոշում"
  },
  {
    "name": "Պրոգեստերոն ընկալիչների որոշում"
  },
  {
    "name": "Հերցեպտինի ընկալիչների որոշում"
  },
  {
    "name": "Ուռուցքային բջիջների KI-67որոշում"
  },
  {
    "name": "Քսուկների բջջաբանական հետազոտություն"
  },
  {
    "name": "Դրոշմվածքի բջջաբանական հետազոտություն"
  },
  {
    "name": "Պունկտատի բջջաբանական հետազոտություն"
  },
  {
    "name": "Քսուկի PAP smear"
  },
  {
    "name": "Բիոպտատի հյուսվածքաբանական հետազոտություն"
  },
  {
    "name": "Թվարկված 3 ընկալիչների միաժամանակ որոշում"
  },
  {
    "name": "Միկրո պրեպարատների վերանայում1-10 բլոկ /ապակի/"
  },
  {
    "name": "Միկրո պրեպարատների վերանայում10ից ավել առկ ապակի/"
  },
  {
    "name": "Մակրոպրեպարատի պարաֆինային բլոկ"
  },
  {
    "name": "Վիր մակրոպրեպարատի հյուսվ. հետազոտություն"
  },
  {
    "name": "Արգանդի խոռոչի քերուկ առանց անզգ/ախտ նպատակով/"
  },
  {
    "name": "Բիոպսիա ախտորոշիչ նպատակով"
  },
  {
    "name": "Հիստերեսկոպիա ախտորոշիչ ընդհ անզգայացմամբ"
  },
  {
    "name": "Աղտորոշիչ հիստերեսկոպիա տեղ. անզգայացմամբ"
  },
  {
    "name": "Վիրահատական պրեպարատի հետազոտություն"
  },
  {
    "name": "Կրծքագեղձի տրեպան բիոպսիա"
  },
  {
    "name": "Որովայնի ջրգողության բացթողում (պունկցիա)"
  },
  {
    "name": "Պլևրալ խոռոչի պունկցիա"
  },
  {
    "name": "Պերֆերիկ օրգ-ի կամ ավշ հանգ-ի պունք. բիոպ 1 կողմից"
  },
  {
    "name": "Պերֆերիկ օրգ-ի կամ ավշ հանգ-ի պունք. բիոպ 2 կողմից"
  },
  {
    "name": "Կրծքավանդակի օրգ-ի պունկցիոնալ բիոպ ռենգ հսկող"
  },
  {
    "name": "Արգանդի ռեցեպտոր ստատուսի որոշում"
  },
  {
    "name": "MSI (միկրոսատելիտային ոչ ստաբիլություն)"
  },
  {
    "name": "Թոքի ուռուցքների ԻՀՔ"
  },
  {
    "name": "Ձվարանների ուռուցքների ԻՀՔ"
  },
  {
    "name": "Փափուկ հյուսվածքների ԻՀՔ"
  },
  {
    "name": "Լիմֆոպրոլիֆերատիվ հիվանդությունների ԻՀՔ"
  },
  {
    "name": "Ուռուցքներ առանցառաջնային օջախի"
  },
  {
    "name": "CD 3 /Պան T մարկեր/"
  },
  {
    "name": "CD 5 /T-լիմֆոմա/"
  },
  {
    "name": "CD 10 /ցողունաբջջային անտիգեն/"
  },
  {
    "name": "CD15 /գրանուլոցիտների մարկեր"
  },
  {
    "name": "CD 20 /Պան -B մարկեր/"
  },
  {
    "name": "CD23/B-բջջային ցենտրոբլաստ/ցենտրոցիտար լիմֆոմաներ/"
  },
  {
    "name": "CD30/Հոջկինի"
  },
  {
    "name": "CD 99/Յուինգի ուռ-ի և PNET խմբի մարկեր/"
  },
  {
    "name": "CD 57"
  },
  {
    "name": "CD 34 /олл"
  },
  {
    "name": "CD 45 (ОЛА)/ընդհ. լեյկոցիտ անտիգեն /"
  },
  {
    "name": "Cyclin D1/մանտիայի զոնային լիմֆոմաներ/"
  },
  {
    "name": "BCI-2 /ֆոլլիկուլյար լիմֆոմաներ/"
  },
  {
    "name": "EMA /էպիթելիալ մեմբրանային անտիգեն/"
  },
  {
    "name": "KI-67 /ուռուցքային հյուս-ի պրոլիֆիվ ակտիվ ցուցանիշ"
  },
  {
    "name": "ЦКР/էպիթելային ծագման ուռուցքներ /5"
  },
  {
    "name": "TTF/թոքերի և վահանագեղձի ուռ-ի մարկեր/"
  },
  {
    "name": "GFAP/նյարդային համ-ի ուռուցքի մարկեր/"
  },
  {
    "name": "ЦКР/;հասարակ ՛ էպիթելի մարկեր/7"
  },
  {
    "name": "ЦКР/հասարակ էպիթելի մարկեր/8"
  },
  {
    "name": "ЦКР/կոլոռեկտալ քաղցկեղի մարկեր/20"
  },
  {
    "name": "PSA/պրոստատ սպեցիֆիկ անտիգեն/"
  },
  {
    "name": "Vimentin/մեզենմիխալ ծագման բջիջներ/"
  },
  {
    "name": "Desmin/մկանային ուռ-ի մարկեր/"
  },
  {
    "name": "SMA/հարթ մկանային ուռ-ի մարկեր/"
  },
  {
    "name": "E-кадгерин /բջջային ադգեզիայի մարկեր/"
  },
  {
    "name": "P63/էպիթելի բազալ շերտի բջիջների մարկեր/"
  },
  {
    "name": "S100/նեյրոէկտոդերմալ ծագման բջիջներ /"
  },
  {
    "name": "синоптофизин/նեյրոէնդոկրին ուռ-ի մարկեր"
  },
  {
    "name": "хромогранин/էնդոկրին-բջջային ուռ-ի մարկեր/"
  },
  {
    "name": "PLAP/գերմինոգեն ուռ-ի մարկեր/"
  },
  {
    "name": "CD79 a /Պան-B մարկեր "
  },
  {
    "name": "DOG 1/GIST/"
  },
  {
    "name": "Cd x 2/գաստրոինտերստիցիալ դիֆերենցացիա"
  },
  {
    "name": "CD 56/NK բջիջների մարկեր/"
  },
  {
    "name": "MUM 1 /Ռիդ-Շտենբերգի բջիջների մարկեր/"
  },
  {
    "name": "CD 138/պլազմատիկ բջիջների մարկեր/"
  },
  {
    "name": "NSE/նեյրոններ"
  },
  {
    "name": "TDT/նախա-T և B լիմֆոցիտների մարկեր/"
  },
  {
    "name": "MAGE A1/ մելանոսոմների մարկեր/"
  },
  {
    "name": "melan A/մելանոցիտների դիֆերենցացիայի մարկեր/"
  },
  {
    "name": "L-inhibin/սեռական ձգանի ուռուցքների մարկեր/"
  },
  {
    "name": "ALK/անապլաստիկ լիմֆոմաների մարկեր"
  },
  {
    "name": "Պլևրալ և ասցիտ հեղ-ի իմունոցիտո հետազ 'cell block'"
  },
  {
    "name": "Pan Keratin"
  },
  {
    "name": "Hepatocyte Specific Antigen (HSA)"
  },
  {
    "name": "Mammaglobin"
  },
  {
    "name": "Calretinin"
  },
  {
    "name": "WT 1"
  },
  {
    "name": "Alpha -Fetoprotein(AFP)"
  },
  {
    "name": "Fascin"
  },
  {
    "name": "Napsin A"
  },
  {
    "name": "Myogenin"
  },
  {
    "name": "bcl-2"
  },
  {
    "name": "CD31"
  },
  {
    "name": "Renal Cell Carcinoma(RCC)"
  },
  {
    "name": "PAX-5"
  },
  {
    "name": "PAX 8"
  },
  {
    "name": "Oct -4"
  },
  {
    "name": "MSH2"
  },
  {
    "name": "MSH6"
  },
  {
    "name": "MLH-1"
  }
]
